com\epam\cloud\mypack\MyClass3.class
com\epam\cloud\Starter.class
com\epam\cloud\mypack\MyClass4.class
com\epam\cloud\annotation\NeedAdditionalInitialization.class
com\epam\cloud\mypack\MyClass2.class
io\github\konohiroaki\annotationprocessor\timer\Timer.class
com\epam\cloud\enums\ObjectScope.class
io\github\konohiroaki\annotationprocessor\timer\AutoInjectProcessor.class
com\epam\cloud\annotation\AutoInject.class
com\epam\cloud\annotationprocesor\AnnotationProcessor.class
com\epam\cloud\interfaces\Cloneable.class
com\epam\cloud\interfaces\RunnableClass.class
com\epam\cloud\container\Container.class
com\epam\cloud\mypack\InitClass.class
com\epam\cloud\exceptions\ScoupNotSupportedException.class
com\epam\cloud\TestClass.class
com\epam\cloud\container\Container$ObjectHandler.class
io\github\konohiroaki\annotationprocessor\timer\TimerTranslator.class
com\epam\cloud\exceptions\PrototypeNotSupportedException.class
com\epam\cloud\starter\Application.class
com\epam\cloud\mypack\MyClass1.class
