C:\Users\Neo\IdeaProjects\practicetask-\ContainerIoC\src\main\java\com\epam\cloud\mypack\MyClass3.java
C:\Users\Neo\IdeaProjects\practicetask-\ContainerIoC\src\main\java\com\epam\cloud\starter\Application.java
C:\Users\Neo\IdeaProjects\practicetask-\ContainerIoC\src\main\java\com\epam\cloud\interfaces\Cloneable.java
C:\Users\Neo\IdeaProjects\practicetask-\ContainerIoC\src\main\java\com\epam\cloud\annotationprocesor\AnnotationProcessor.java
C:\Users\Neo\IdeaProjects\practicetask-\ContainerIoC\src\main\java\com\epam\cloud\enums\ObjectScope.java
C:\Users\Neo\IdeaProjects\practicetask-\ContainerIoC\src\main\java\io\github\konohiroaki\annotationprocessor\timer\Timer.java
C:\Users\Neo\IdeaProjects\practicetask-\ContainerIoC\src\main\java\com\epam\cloud\Starter.java
C:\Users\Neo\IdeaProjects\practicetask-\ContainerIoC\src\main\java\com\epam\cloud\mypack\InitClass.java
C:\Users\Neo\IdeaProjects\practicetask-\ContainerIoC\src\main\java\com\epam\cloud\mypack\MyClass2.java
C:\Users\Neo\IdeaProjects\practicetask-\ContainerIoC\src\main\java\com\epam\cloud\TestClass.java
C:\Users\Neo\IdeaProjects\practicetask-\ContainerIoC\src\main\java\com\epam\cloud\exceptions\ScoupNotSupportedException.java
C:\Users\Neo\IdeaProjects\practicetask-\ContainerIoC\src\main\java\com\epam\cloud\mypack\MyClass4.java
C:\Users\Neo\IdeaProjects\practicetask-\ContainerIoC\src\main\java\io\github\konohiroaki\annotationprocessor\timer\TimerTranslator.java
C:\Users\Neo\IdeaProjects\practicetask-\ContainerIoC\src\main\java\com\epam\cloud\annotation\AutoInject.java
C:\Users\Neo\IdeaProjects\practicetask-\ContainerIoC\src\main\java\com\epam\cloud\annotation\NeedAdditionalInitialization.java
C:\Users\Neo\IdeaProjects\practicetask-\ContainerIoC\src\main\java\com\epam\cloud\interfaces\RunnableClass.java
C:\Users\Neo\IdeaProjects\practicetask-\ContainerIoC\src\main\java\com\epam\cloud\mypack\MyClass1.java
C:\Users\Neo\IdeaProjects\practicetask-\ContainerIoC\src\main\java\com\epam\cloud\container\Container.java
C:\Users\Neo\IdeaProjects\practicetask-\ContainerIoC\src\main\java\com\epam\cloud\exceptions\PrototypeNotSupportedException.java
C:\Users\Neo\IdeaProjects\practicetask-\ContainerIoC\src\main\java\io\github\konohiroaki\annotationprocessor\timer\AutoInjectProcessor.java
